{
  "defaults": {
    "name": "$$CHANGELOG",
    "description": "$$CHANGELOG",
    "assets": {
      "links": [
        {
          "name": "npm",
          "url": "https://www.npmjs.com/package/gitlab-ci-env",
          "type": "package"
        }
      ]
    },
    "milestones": ["${CI_COMMIT_TAG}"]
  }
}
